%YAML 1.1
%TAG !u! tag:unity3d.com,2011:
--- !u!114 &11400000
MonoBehaviour:
  m_ObjectHideFlags: 0
  m_PrefabParentObject: {fileID: 0}
  m_PrefabInternal: {fileID: 0}
  m_GameObject: {fileID: 0}
  m_Enabled: 1
  m_EditorHideFlags: 0
  m_Script: {fileID: 11500000, guid: 953fbbcd60ae04744b9196f12954867c, type: 3}
  m_Name: SplashMenuState
  m_EditorClassIdentifier: 
  m_Music: {fileID: 0}
  m_PanelPrefab: {fileID: 11442350, guid: 5ea3b7b0effb40c40b47853cf170af49, type: 2}
